sudo docker build -t mytomcat2:v1 .
sudo docker run --name server_1 -d -p 8383:8080 mytomcat2:v1
sudo docker run --name server_2 -d -p 8484:8080 mytomcat2:v1
sudo docker run --name server_3 -d -p 8585:8080 mytomcat2:v1

sudo docker run --name cliente_1 -d -p 8686:8080 mytomcat2:v1
sudo docker run --name cliente_2 -d -p 8686:8080 mytomcat2:v1
sudo docker run --name cliente_3 -d -p 8686:8080 mytomcat2:v1


###################################################
# En caso de descargar la imagen
sudo docker pull dantorr62/mytomcat_container:v2